<svg width="441" height="420" viewBox="0 0 441 420" fill="none" xmlns="http://www.w3.org/2000/svg">
<g id="star">
<path id="Path" d="M440.802 160.16L282.333 146.708L220.4 0.495239L158.469 146.708L0 160.16L120.339 264.471L84.1927 419.505L220.4 337.247L356.608 419.505L320.463 264.471L440.802 160.16Z" fill="#F4EBE4"/>
</g>
</svg>
