<svg width="47" height="45" viewBox="0 0 47 45" fill="none" xmlns="http://www.w3.org/2000/svg">
<g id="calendar">
<path id="Shape" fill-rule="evenodd" clip-rule="evenodd" d="M38.2819 4.86037C38.2819 3.53203 37.2106 2.45503 35.8893 2.45503H33.4967C33.4967 1.12669 32.4254 0.0496826 31.104 0.0496826C29.7827 0.0496826 28.7114 1.12669 28.7114 2.45503H25.5213C25.5213 1.12669 24.45 0.0496826 23.1286 0.0496826C21.8073 0.0496826 20.736 1.12669 20.736 2.45503H17.5459C17.5459 1.12669 16.4746 0.0496826 15.1533 0.0496826C13.8319 0.0496826 12.7606 1.12669 12.7606 2.45503H9.57047C9.57047 1.12669 8.49917 0.0496826 7.17786 0.0496826C5.85654 0.0496826 4.78524 1.12669 4.78524 2.45503H2.39262C1.0713 2.45503 0 3.53203 0 4.86037V38.5352C0 38.978 0.357101 39.337 0.79754 39.337H3.19016V41.7423C3.19016 42.1851 3.54726 42.5441 3.9877 42.5441H24.9893C24.9947 42.5441 24.9993 42.5427 25.0039 42.5413C25.0063 42.5406 25.0087 42.5398 25.0112 42.5393C25.0132 42.5389 25.0152 42.5386 25.0173 42.5386C29.2414 45.4674 34.749 45.7458 39.2442 43.257C43.7393 40.7687 46.4497 35.9404 46.246 30.786C46.0423 25.6311 42.9593 21.0346 38.2819 18.9123V4.86037ZM30.3065 2.45503C30.3065 2.01225 30.6636 1.65325 31.104 1.65325C31.5445 1.65325 31.9016 2.01225 31.9016 2.45503V4.86037H30.3065V2.45503ZM23.1286 1.65325C22.6882 1.65325 22.3311 2.01225 22.3311 2.45503V4.86037H23.9262V2.45503C23.9262 2.01225 23.5691 1.65325 23.1286 1.65325ZM14.3557 2.45503C14.3557 2.01225 14.7128 1.65325 15.1533 1.65325C15.5937 1.65325 15.9508 2.01225 15.9508 2.45503V4.86037H14.3557V2.45503ZM7.17786 1.65325C6.73742 1.65325 6.38032 2.01225 6.38032 2.45503V4.86037H7.9754V2.45503C7.9754 2.01225 7.61829 1.65325 7.17786 1.65325ZM1.59508 4.86037C1.59508 4.41759 1.95218 4.05859 2.39262 4.05859H4.78524V5.66215C4.78524 6.10494 5.14234 6.46394 5.58278 6.46394H8.77293C9.21337 6.46394 9.57047 6.10494 9.57047 5.66215V4.05859H12.7606V5.66215C12.7606 6.10494 13.1177 6.46394 13.5582 6.46394H16.7483C17.1888 6.46394 17.5459 6.10494 17.5459 5.66215V4.05859H20.736V5.66215C20.736 6.10494 21.0931 6.46394 21.5336 6.46394H24.7237C25.1642 6.46394 25.5213 6.10494 25.5213 5.66215V4.05859H28.7114V5.66215C28.7114 6.10494 29.0685 6.46394 29.509 6.46394H32.6991C33.1396 6.46394 33.4967 6.10494 33.4967 5.66215V4.05859H35.8893C36.3297 4.05859 36.6868 4.41759 36.6868 4.86037V8.86928H1.59508V4.86037ZM21.7594 39.337H4.78524V40.9406H23.1057C22.6166 40.4414 22.1664 39.9054 21.7594 39.337ZM44.6622 31.3192C44.6622 37.9613 39.3061 43.3459 32.6991 43.3459C26.0922 43.3459 20.736 37.9613 20.736 31.3192C20.736 24.6771 26.0922 19.2924 32.6991 19.2924C39.303 19.2999 44.6548 24.6802 44.6622 31.3192ZM21.0702 24.3048C23.52 20.1976 27.9353 17.6857 32.6991 17.6889C34.0508 17.6885 35.3951 17.8921 36.6868 18.2926V10.4728H1.59508V37.7334H20.7423C18.4957 33.5108 18.6203 28.4115 21.0702 24.3048Z" fill="#E62B1E"/>
<path id="Shape_2" fill-rule="evenodd" clip-rule="evenodd" d="M4.78516 16.0854C4.78516 14.7571 5.85646 13.6801 7.17777 13.6801C8.49909 13.6801 9.57039 14.7571 9.57039 16.0854C9.57039 17.4137 8.49909 18.4907 7.17777 18.4907C5.85646 18.4907 4.78516 17.4137 4.78516 16.0854ZM6.38024 16.0854C6.38024 16.5282 6.73734 16.8872 7.17777 16.8872C7.61821 16.8872 7.97531 16.5282 7.97531 16.0854C7.97531 15.6426 7.61821 15.2836 7.17777 15.2836C6.73734 15.2836 6.38024 15.6426 6.38024 16.0854Z" fill="#E62B1E"/>
<path id="Shape_3" fill-rule="evenodd" clip-rule="evenodd" d="M12.7607 16.0854C12.7607 14.7571 13.832 13.6801 15.1534 13.6801C16.4747 13.6801 17.546 14.7571 17.546 16.0854C17.546 17.4137 16.4747 18.4907 15.1534 18.4907C13.832 18.4907 12.7607 17.4137 12.7607 16.0854ZM14.3558 16.0854C14.3558 16.5282 14.7129 16.8872 15.1534 16.8872C15.5938 16.8872 15.9509 16.5282 15.9509 16.0854C15.9509 15.6426 15.5938 15.2836 15.1534 15.2836C14.7129 15.2836 14.3558 15.6426 14.3558 16.0854Z" fill="#E62B1E"/>
<path id="Shape_4" fill-rule="evenodd" clip-rule="evenodd" d="M20.7363 16.0854C20.7363 14.7571 21.8076 13.6801 23.1289 13.6801C24.4503 13.6801 25.5216 14.7571 25.5216 16.0854C25.5216 17.4137 24.4503 18.4907 23.1289 18.4907C21.8076 18.4907 20.7363 17.4137 20.7363 16.0854ZM22.3314 16.0854C22.3314 16.5282 22.6885 16.8872 23.1289 16.8872C23.5694 16.8872 23.9265 16.5282 23.9265 16.0854C23.9265 15.6426 23.5694 15.2836 23.1289 15.2836C22.6885 15.2836 22.3314 15.6426 22.3314 16.0854Z" fill="#E62B1E"/>
<path id="Shape_5" fill-rule="evenodd" clip-rule="evenodd" d="M4.78516 22.4996C4.78516 21.1712 5.85646 20.0942 7.17777 20.0942C8.49909 20.0942 9.57039 21.1712 9.57039 22.4996C9.57039 23.8279 8.49909 24.9049 7.17777 24.9049C5.85646 24.9049 4.78516 23.8279 4.78516 22.4996ZM6.38024 22.4996C6.38024 22.9424 6.73734 23.3014 7.17777 23.3014C7.61821 23.3014 7.97531 22.9424 7.97531 22.4996C7.97531 22.0568 7.61821 21.6978 7.17777 21.6978C6.73734 21.6978 6.38024 22.0568 6.38024 22.4996Z" fill="#E62B1E"/>
<path id="Shape_6" fill-rule="evenodd" clip-rule="evenodd" d="M12.7607 22.4996C12.7607 21.1712 13.832 20.0942 15.1534 20.0942C16.4747 20.0942 17.546 21.1712 17.546 22.4996C17.546 23.8279 16.4747 24.9049 15.1534 24.9049C13.832 24.9049 12.7607 23.8279 12.7607 22.4996ZM14.3558 22.4996C14.3558 22.9424 14.7129 23.3014 15.1534 23.3014C15.5938 23.3014 15.9509 22.9424 15.9509 22.4996C15.9509 22.0568 15.5938 21.6978 15.1534 21.6978C14.7129 21.6978 14.3558 22.0568 14.3558 22.4996Z" fill="#E62B1E"/>
<path id="Shape_7" fill-rule="evenodd" clip-rule="evenodd" d="M4.78516 28.9139C4.78516 27.5855 5.85646 26.5085 7.17777 26.5085C8.49909 26.5085 9.57039 27.5855 9.57039 28.9139C9.57039 30.2422 8.49909 31.3192 7.17777 31.3192C5.85646 31.3192 4.78516 30.2422 4.78516 28.9139ZM6.38024 28.9139C6.38024 29.3567 6.73734 29.7157 7.17777 29.7157C7.61821 29.7157 7.97531 29.3567 7.97531 28.9139C7.97531 28.4711 7.61821 28.1121 7.17777 28.1121C6.73734 28.1121 6.38024 28.4711 6.38024 28.9139Z" fill="#E62B1E"/>
<path id="Shape_8" fill-rule="evenodd" clip-rule="evenodd" d="M12.7607 28.9139C12.7607 27.5855 13.832 26.5085 15.1534 26.5085C16.4747 26.5085 17.546 27.5855 17.546 28.9139C17.546 30.2422 16.4747 31.3192 15.1534 31.3192C13.832 31.3192 12.7607 30.2422 12.7607 28.9139ZM14.3558 28.9139C14.3558 29.3567 14.7129 29.7157 15.1534 29.7157C15.5938 29.7157 15.9509 29.3567 15.9509 28.9139C15.9509 28.4711 15.5938 28.1121 15.1534 28.1121C14.7129 28.1121 14.3558 28.4711 14.3558 28.9139Z" fill="#E62B1E"/>
<path id="Shape_9" fill-rule="evenodd" clip-rule="evenodd" d="M32.6991 41.7423C26.973 41.7423 22.3311 37.0757 22.3311 31.3192C22.3377 25.5654 26.9757 20.9027 32.6991 20.896C38.4252 20.896 43.0671 25.5626 43.0671 31.3192C43.0671 37.0757 38.4252 41.7423 32.6991 41.7423ZM39.8769 31.3192H41.472C41.4662 26.7622 38.0104 22.9584 33.4966 22.5407V24.1031C33.4966 24.5459 33.1395 24.9049 32.6991 24.9049C32.2586 24.9049 31.9015 24.5459 31.9015 24.1031V22.5407C27.3877 22.9584 23.932 26.7622 23.9261 31.3192H25.5212C25.9617 31.3192 26.3188 31.6782 26.3188 32.1209C26.3188 32.5637 25.9617 32.9227 25.5212 32.9227H24.0784C24.7977 36.8036 27.9917 39.7332 31.9015 40.098V38.5352C31.9015 38.0924 32.2586 37.7334 32.6991 37.7334C33.1395 37.7334 33.4966 38.0924 33.4966 38.5352V40.098C37.4064 39.7332 40.6005 36.8036 41.3197 32.9227H39.8769C39.4365 32.9227 39.0794 32.5637 39.0794 32.1209C39.0794 31.6782 39.4365 31.3192 39.8769 31.3192Z" fill="#E62B1E"/>
<path id="Path" d="M32.8709 30.9344L31.768 29.2709C31.5235 28.9025 31.0281 28.8031 30.6617 29.0485C30.2952 29.2944 30.1963 29.7924 30.4409 30.1608L32.036 32.5661C32.1617 32.7548 32.3611 32.8813 32.5847 32.9141C32.6228 32.92 32.661 32.9232 32.6995 32.9228C32.8861 32.9232 33.0668 32.8574 33.2101 32.7376L37.9953 28.7287C38.3341 28.4452 38.3801 27.9394 38.0981 27.5992C37.8162 27.2586 37.313 27.212 36.9742 27.4955L32.8709 30.9344Z" fill="#E62B1E"/>
</g>
</svg>
