<svg width="45" height="45" viewBox="0 0 45 45" fill="none" xmlns="http://www.w3.org/2000/svg">
<g id="concept">
<path id="Shape" fill-rule="evenodd" clip-rule="evenodd" d="M40.2329 24.1309C40.7504 23.556 41.4915 23.2258 42.2652 23.2258C43.7734 23.2258 45 24.4524 45 25.9606V26.0695C45 26.7605 44.7423 27.4195 44.2742 27.9254L36.8673 35.9485C36.495 36.3513 36.2903 36.876 36.2903 37.4248V45H26.129V37.4248C26.129 36.8768 25.9244 36.352 25.5513 35.9477L18.871 28.7107V36.2903H21.7742V45H0V40.6452H2.90323V23.9516V16.6935C2.90323 13.3091 5.02331 10.4175 8.00202 9.25766C6.67742 8.33952 5.80645 6.81024 5.80645 5.08065C5.80645 2.27976 8.08621 0 10.8871 0C13.688 0 15.9677 2.27976 15.9677 5.08065C15.9677 6.50177 15.3798 7.78645 14.4356 8.70968H21.7742V7.98387C21.7742 6.78339 22.7511 5.80645 23.9516 5.80645H28.3065C28.3065 4.20532 29.6085 2.90323 31.2097 2.90323C32.8108 2.90323 34.1129 4.20532 34.1129 5.80645H38.4677C39.6682 5.80645 40.6452 6.78339 40.6452 7.98387V13.0645H39.1936C38.393 13.0645 37.7419 13.7156 37.7419 14.5161C37.7419 15.3167 38.393 15.9677 39.1936 15.9677H40.6452V21.0484C40.6452 22.2489 39.6682 23.2258 38.4677 23.2258H34.7581C35.7024 24.149 36.2903 25.4337 36.2903 26.8548C36.2903 27.6619 36.0965 28.4226 35.7598 29.1005L40.2329 24.1309ZM31.2097 30.4839C33.2107 30.4839 34.8387 28.8559 34.8387 26.8548C34.8387 24.8538 33.2107 23.2258 31.2097 23.2258C29.2086 23.2258 27.5806 24.8538 27.5806 26.8548C27.5806 28.8559 29.2086 30.4839 31.2097 30.4839ZM18.4863 23.8094C17.8933 22.6089 16.6681 21.7742 15.2419 21.7742H13.8484L14.3594 15.1302C14.4167 14.379 15.0525 13.7903 15.8066 13.7903H24.48C24.607 14.0095 24.6774 14.2585 24.6774 14.5161C24.6774 15.3167 24.0264 15.9677 23.2258 15.9677H21.7742V21.0484C21.7742 22.2489 22.7511 23.2258 23.9516 23.2258H27.6612C26.7169 24.149 26.129 25.4337 26.129 26.8548C26.129 27.6627 26.3235 28.424 26.6603 29.1027L22.1865 24.1309C21.6682 23.556 20.9279 23.2258 20.1542 23.2258C19.5235 23.2258 18.9494 23.4494 18.4863 23.8094ZM23.9516 7.25806C23.551 7.25806 23.2258 7.58323 23.2258 7.98387V8.70968H25.0403C26.4411 8.70968 27.5806 9.84919 27.5806 11.25C27.5806 12.3206 26.9129 13.2336 25.9737 13.6074C26.0702 13.8985 26.129 14.2033 26.129 14.5161C26.129 16.1173 24.8269 17.4194 23.2258 17.4194V21.0484C23.2258 21.449 23.551 21.7742 23.9516 21.7742H38.4677C38.8684 21.7742 39.1936 21.449 39.1936 21.0484V17.4194C37.5924 17.4194 36.2903 16.1173 36.2903 14.5161C36.2903 12.915 37.5924 11.6129 39.1936 11.6129V7.98387C39.1936 7.58323 38.8684 7.25806 38.4677 7.25806H32.6613V5.80645C32.6613 5.00589 32.0102 4.35484 31.2097 4.35484C30.4091 4.35484 29.7581 5.00589 29.7581 5.80645V7.25806H23.9516ZM7.25806 5.08065C7.25806 3.0796 8.88605 1.45161 10.8871 1.45161C12.8881 1.45161 14.5161 3.0796 14.5161 5.08065C14.5161 7.08169 12.8881 8.70968 10.8871 8.70968C8.88605 8.70968 7.25806 7.08169 7.25806 5.08065ZM6.53226 27.5806C5.7121 27.5806 4.96306 27.2969 4.35484 26.836V40.6452H7.32702L8.63347 27.5806H6.53226ZM11.7094 27.5806L12.9535 36.2903H11.0903L9.63871 40.6452H8.78661L10.0931 27.5806H11.7094ZM1.45161 42.0968V43.5484H20.3226V37.7419H12.1362L10.6846 42.0968H1.45161ZM14.4203 36.2903L13.1473 27.3752C13.0456 26.6647 12.4273 26.129 11.7094 26.129H6.53226C5.33177 26.129 4.35484 25.1521 4.35484 23.9516V16.6935C4.35484 13.0914 7.28492 10.1613 10.8871 10.1613H25.0403C25.6406 10.1613 26.129 10.6498 26.129 11.25C26.129 11.8502 25.6406 12.3387 25.0403 12.3387H15.8066C14.2991 12.3387 13.0275 13.516 12.9121 15.0184L12.4011 21.6617C12.3699 22.0638 12.5093 22.4637 12.7829 22.7598C13.0565 23.0567 13.4448 23.2258 13.8484 23.2258H15.2419C16.4424 23.2258 17.4194 24.2027 17.4194 25.4032V25.9606V26.0695V36.2903H14.4203ZM43.208 26.939C43.4279 26.7017 43.5484 26.3932 43.5484 26.0695V25.9606C43.5484 25.253 42.9728 24.6774 42.2652 24.6774C41.9023 24.6774 41.5553 24.832 41.3122 25.102L36.675 30.2538C35.714 31.3222 34.3372 31.9355 32.8994 31.9355H29.52C28.0822 31.9355 26.706 31.3222 25.7436 30.2538L21.1072 25.102C20.8648 24.832 20.5171 24.6774 20.1542 24.6774C19.4465 24.6774 18.871 25.253 18.871 25.9606V26.0695C18.871 26.3932 18.9915 26.7017 19.2114 26.9383L26.6182 34.9628C27.2388 35.6364 27.5806 36.5102 27.5806 37.4248V43.5484H34.8387V37.4248C34.8387 36.511 35.1806 35.6371 35.8004 34.9643L43.208 26.939Z" fill="#E62B1E"/>
</g>
</svg>
