<svg width="60" height="60" viewBox="0 0 60 60" fill="none" xmlns="http://www.w3.org/2000/svg">
<g id="email">
<path id="Shape" fill-rule="evenodd" clip-rule="evenodd" d="M59.9927 22.9657C59.9941 22.9702 59.9954 22.9747 59.9965 22.9792C59.9979 22.985 59.9988 22.991 59.9988 22.9972H59.9991V56.9973C59.9953 57.3192 59.9393 57.6384 59.833 57.9423C60.0335 58.2475 60.0498 58.6384 59.8754 58.9593C59.7011 59.2803 59.3643 59.4793 58.999 59.4772C58.9098 59.4748 58.8213 59.4604 58.736 59.4342C58.2302 59.799 57.6227 59.9958 56.9991 59.9971H2.99906C2.37797 59.9973 1.77234 59.8032 1.26703 59.4421C0.867891 59.557 0.439453 59.4107 0.193828 59.0758C-0.0517969 58.7409 -0.0625781 58.2883 0.166992 57.9421C0.0603516 57.6383 0.00398437 57.3192 0 56.9971V22.9932C0 22.9826 0.00305705 22.9728 0.00607913 22.963C0.00903283 22.9535 0.0119531 22.9442 0.0119531 22.9342C0.0183984 22.8663 0.0321094 22.7992 0.0529688 22.7342C0.0665625 22.6749 0.0856641 22.617 0.109922 22.5612C0.138398 22.5083 0.171914 22.458 0.209883 22.4112C0.249492 22.3539 0.295078 22.301 0.345937 22.2533C0.353365 22.2467 0.358858 22.2391 0.364327 22.2315C0.370592 22.2228 0.376825 22.2142 0.385898 22.2072L9.99891 14.7383V6.99722C9.99891 5.3403 11.3421 3.99722 12.9989 3.99722H23.8359L28.1759 0.628193C29.248 -0.207119 30.7507 -0.207119 31.8229 0.628193L36.162 3.99722H46.999C48.6558 3.99722 49.999 5.34042 49.999 6.99722V14.7383L59.6129 22.2072C59.622 22.2141 59.6281 22.2227 59.6344 22.2314C59.6398 22.239 59.6454 22.2467 59.6529 22.2533C59.7037 22.301 59.7493 22.3539 59.7889 22.4112C59.8269 22.458 59.8603 22.5083 59.8889 22.5612C59.9129 22.6171 59.932 22.675 59.9459 22.7342C59.967 22.8005 59.9807 22.869 59.9869 22.9382C59.9872 22.9442 59.9883 22.95 59.9898 22.9557L59.9927 22.9657ZM30.5918 2.20624C30.2426 1.92874 29.748 1.92874 29.3988 2.20624L27.0988 3.99722H32.8988L30.5918 2.20624ZM3.24691 57.9972L29.3989 37.6832C29.7484 37.4074 30.2415 37.4074 30.591 37.6832L56.7509 57.9972H3.24691ZM31.8209 36.1042L57.9989 56.4352V24.5203L41.5829 37.2672C41.1465 37.606 40.5182 37.527 40.1794 37.0907C39.8406 36.6543 39.9196 36.026 40.3559 35.6872L57.0336 22.7362L49.9986 17.2702V24.9972C49.9986 25.5494 49.551 25.9972 48.9987 25.9972C48.4464 25.9972 47.9987 25.5495 47.9987 24.9972V6.99722C47.9987 6.44491 47.5511 5.99726 46.9987 5.99726H12.9988C12.4465 5.99726 11.9988 6.44491 11.9988 6.99722V24.9972C11.9988 25.5494 11.5512 25.9972 10.9989 25.9972C10.4467 25.9972 9.99891 25.5495 9.99891 24.9972V17.2702L2.96391 22.7362L19.6119 35.6641C20.0486 36.0026 20.128 36.631 19.7895 37.0676C19.4509 37.5043 18.8225 37.5837 18.3859 37.2452L1.99887 24.5201V56.4352L28.1769 36.1042C29.2484 35.2701 30.7494 35.2701 31.8209 36.1042Z" fill="#EC3839"/>
<path id="Path" d="M19.999 12.9972H39.999C40.5513 12.9972 40.999 12.5496 40.999 11.9973C40.999 11.445 40.5513 10.9973 39.999 10.9973H19.999C19.4467 10.9973 18.999 11.445 18.999 11.9973C18.999 12.5496 19.4467 12.9972 19.999 12.9972Z" fill="#EC3839"/>
<path id="Path_2" d="M40.999 17.9973C40.999 17.445 40.5513 16.9973 39.999 16.9973H19.999C19.4467 16.9973 18.999 17.4451 18.999 17.9973C18.999 18.5496 19.4467 18.9972 19.999 18.9972H39.999C40.5513 18.9972 40.999 18.5495 40.999 17.9973Z" fill="#EC3839"/>
<path id="Path_3" d="M40.9989 23.9973C40.9989 23.445 40.5513 22.9973 39.999 22.9973H30.999C30.4467 22.9973 29.999 23.445 29.999 23.9973C29.999 24.5496 30.4467 24.9972 30.999 24.9972H39.999C40.5513 24.9972 40.9989 24.5495 40.9989 23.9973Z" fill="#EC3839"/>
</g>
</svg>
