<svg width="48" height="60" viewBox="0 0 48 60" xmlns="http://www.w3.org/2000/svg">
<g id="pdf">
<path id="Shape" fill-rule="evenodd" clip-rule="evenodd" d="M45.7028 11.8097L46.5003 12.6072C46.9741 13.081 47.0693 13.6666 47.0693 14.46V40.3448V57.4521V57.931C47.0693 58.7969 46.1983 59.641 45.1679 59.9069L45.1488 59.9121C45.135 59.9161 45.1213 59.9204 45.1076 59.9247L45.1075 59.9247C45.0765 59.9344 45.0454 59.9441 45.0127 59.9503C44.8514 59.9824 44.6869 60 44.5214 60H3.06551C2.89999 60 2.73551 59.9824 2.57413 59.9503C2.54146 59.9441 2.51032 59.9343 2.47931 59.9247L2.47917 59.9246C2.45917 59.9184 2.43922 59.9122 2.41896 59.9069C1.38861 59.641 0.517578 58.7969 0.517578 57.931V57.4521V40.3448V3.0269C0.517578 0.947586 1.83861 0 3.06551 0H33.0883C33.6003 0 34.101 0.207931 34.4621 0.568965L35.2596 1.36655L45.7028 11.8097ZM34.6555 12.4138H43.3814L34.6555 3.68793V12.4138ZM3.06551 57.931C2.99826 57.931 2.93708 57.9085 2.8772 57.8864L2.86068 57.8803C2.6993 57.8038 2.58654 57.6424 2.58654 57.4521V42.4138H45.0003V57.4521C45.0003 57.6424 44.8876 57.8028 44.7262 57.8803L44.7097 57.8864C44.6498 57.9085 44.5886 57.931 44.5214 57.931H3.06551ZM2.58654 3.0269V40.3448H45.0003V14.46C45.0003 14.4492 44.9998 14.443 44.9995 14.4349C44.9994 14.4314 44.9993 14.4275 44.9993 14.4228C44.869 14.4569 44.7355 14.4828 44.5959 14.4828H32.5865V2.47345C32.5865 2.33379 32.6124 2.19931 32.6465 2.06897H3.06551C2.62068 2.06897 2.58654 2.80241 2.58654 3.0269Z"/>
<path id="Shape_2" fill-rule="evenodd" clip-rule="evenodd" d="M15.428 45.6507C15.8614 45.7914 16.2504 46.0045 16.5949 46.2869C16.9394 46.5703 17.2187 46.9107 17.4308 47.312C17.6428 47.7134 17.7494 48.1634 17.7494 48.6631C17.7494 49.1917 17.6594 49.6696 17.4804 50.0989C17.3004 50.5283 17.0511 50.8893 16.7304 51.181C16.4097 51.4727 16.0228 51.6993 15.5708 51.8596C15.1187 52.02 14.618 52.0996 14.0718 52.0996H12.8128V55.862H11.1152V45.4386H14.1132C14.5559 45.4386 14.9945 45.5089 15.428 45.6507ZM15.5418 50.402C15.7114 50.2417 15.847 50.0183 15.9514 49.7307C16.0549 49.4431 16.1066 49.0872 16.1066 48.662C16.1066 48.4924 16.0828 48.2969 16.0363 48.0755C15.9887 47.8541 15.8925 47.642 15.7466 47.4393C15.5997 47.2365 15.3949 47.0669 15.1311 46.9303C14.8663 46.7938 14.5176 46.7255 14.0842 46.7255H12.8118V50.8552H14.3676C14.5745 50.8552 14.7804 50.8189 14.9832 50.7486C15.1859 50.6783 15.3721 50.5624 15.5418 50.402Z"/>
<path id="Shape_3" fill-rule="evenodd" clip-rule="evenodd" d="M25.1939 45.8555C25.8591 46.1327 26.4105 46.5041 26.8491 46.9655C27.2877 47.4279 27.6146 47.9534 27.8329 48.541C28.0491 49.1296 28.1577 49.7358 28.1577 50.3586C28.1577 51.2162 28.0656 51.9496 27.8815 52.5579C27.6974 53.1662 27.4646 53.6752 27.1812 54.0858C26.8977 54.4965 26.5801 54.8193 26.2263 55.0552C25.8725 55.291 25.5312 55.4679 25.2012 55.5858C24.8712 55.7048 24.5691 55.7793 24.296 55.8124C24.0218 55.8455 23.8191 55.862 23.6877 55.862H19.7422V45.4386H22.8818C23.758 45.4386 24.5287 45.5783 25.1939 45.8555ZM23.1229 54.6165C24.2732 54.6165 25.1029 54.2493 25.6118 53.5138C26.1208 52.7793 26.3753 51.7127 26.3753 50.3172C26.3753 49.8838 26.3236 49.4545 26.2201 49.0303C26.1156 48.6062 25.916 48.2224 25.6191 47.8779C25.3222 47.5334 24.9187 47.2552 24.4098 47.0431C23.9008 46.831 23.2408 46.7245 22.4298 46.7245H21.4398V54.6165H23.1229Z"/>
<path id="Path" d="M30.6182 55.862H32.3437V51.1665H36.6999V50.0069H32.3437V46.7255H37.1375V45.4386H30.6182V55.862Z"/>
<path id="Shape_4" fill-rule="evenodd" clip-rule="evenodd" d="M33.5464 23.7528C32.5958 23.7528 31.4289 23.8769 30.0726 24.1231C28.1795 22.1142 26.2037 19.1804 24.8092 16.3004C26.182 10.5204 25.5104 9.66529 25.2019 9.27255L25.1951 9.26382C25.1624 9.22228 25.1285 9.17813 25.0933 9.13233L25.0932 9.13229C24.7775 8.72194 24.3596 8.17865 23.8906 8.17865C23.6723 8.17865 23.0764 8.27796 22.8395 8.35658C22.2437 8.5552 21.923 9.01451 21.6664 9.61348C20.9351 11.3235 21.9385 14.2386 22.9709 16.4855C22.0885 19.9955 20.6082 24.1966 19.0523 27.6062C15.1316 29.4021 13.0492 31.1659 12.8609 32.849C12.7926 33.4614 12.9375 34.3604 14.0144 35.1683C14.3092 35.3886 14.6547 35.5055 15.0147 35.5055C15.9199 35.5055 16.8344 34.8124 17.8926 33.3259C18.6644 32.2418 19.493 30.7635 20.3578 28.9283C23.1282 27.7169 26.5554 26.6224 29.4902 26.009C31.1247 27.5783 32.5885 28.3728 33.8464 28.3728C34.7733 28.3728 35.5678 27.9466 36.143 27.1407C36.742 26.3018 36.8785 25.5507 36.5464 24.9062C36.1482 24.1314 35.1664 23.7528 33.5464 23.7528ZM15.0375 33.7593C14.5537 33.3883 14.5812 33.138 14.5916 33.0437L14.5916 33.0435C14.6558 32.4683 15.5568 31.4473 17.7675 30.2049C16.0916 33.3 15.1916 33.7107 15.0375 33.7593ZM23.5202 10.0469C23.5647 10.0324 24.6013 11.1859 23.6195 13.3738C22.1444 11.8645 23.4189 10.0811 23.5202 10.0469ZM21.382 26.6255C22.432 24.1231 23.4085 21.36 24.1482 18.8007C25.3099 20.8883 26.7054 22.9138 28.102 24.5359C25.8944 25.0542 23.544 25.7855 21.382 26.6255ZM33.4761 26.5862C33.7182 26.5862 34.4092 26.5759 34.7278 26.13C34.882 25.9138 34.942 25.7752 34.9647 25.7018C34.9554 25.6968 34.9459 25.6914 34.9359 25.6858C34.8088 25.6144 34.6016 25.498 33.7492 25.498C33.2268 25.498 32.5709 25.5207 31.8758 25.6097C32.0901 25.7746 32.2633 25.9188 32.4114 26.0421C32.8459 26.4039 33.0649 26.5862 33.4761 26.5862Z"/>
</g>
</svg>
